module gitlab.com/leanlabsio/kanban

go 1.12

require (
	github.com/Unknwon/com v0.0.0-20170213072014-0db4a625e949
	github.com/davecgh/go-spew v0.0.0-20151105211317-5215b55f46b2
	github.com/dgrijalva/jwt-go v0.0.0-20150904212456-c1da56349675
	github.com/elazarl/go-bindata-assetfs v1.0.0
	github.com/fsnotify/fsnotify v1.3.0
	github.com/go-macaron/bindata v0.0.0-20161222093048-85786f57eee3
	github.com/go-macaron/binding v0.0.0-20160325194650-677c5a4c2f05
	github.com/go-macaron/inject v0.0.0-20160627170012-d8a0b8677191
	github.com/google/go-querystring v0.0.0-20150414214848-547ef5ac9797
	github.com/gorilla/websocket v0.0.0-20170302224613-b258b4fadb57
	github.com/hashicorp/hcl v0.0.0-20160426221300-9a905a34e628
	github.com/inconshreveable/mousetrap v1.0.0
	github.com/leanlabsio/sockets v0.0.0-20151203105927-555ea7145f56
	github.com/magiconair/properties v1.7.0
	github.com/mitchellh/mapstructure v0.0.0-20160212031839-d2dd02622084
	github.com/pelletier/go-buffruneio v0.2.0
	github.com/pelletier/go-toml v0.5.0
	github.com/pmezard/go-difflib v1.0.0
	github.com/spf13/afero v0.0.0-20170217164146-9be650865eab
	github.com/spf13/cast v1.0.0
	github.com/spf13/cobra v0.0.0-20170228191748-fcd0c5a1df88
	github.com/spf13/jwalterweatherman v0.0.0-20170109133355-fa7ca7e836cf
	github.com/spf13/pflag v0.0.0-20170130214245-9ff6c6923cff
	github.com/spf13/viper v0.0.0-20170217163817-7538d73b4eb9
	github.com/stretchr/testify v0.0.0-20160524234229-8d64eb7173c7
	golang.org/x/crypto v0.0.0-20170302193244-40541ccb1c6e
	golang.org/x/net v0.0.0-20170114055629-f2499483f923
	golang.org/x/oauth2 v0.0.0-20150902214911-ad0128250e8f
	golang.org/x/sys v0.0.0-20160516132347-d4feaf1a7e61
	golang.org/x/text v0.0.0-20160316130522-1b466db55e0b
	gopkg.in/bsm/ratelimit.v1 v1.0.0-20150417081222-bda20d5067a0
	gopkg.in/ini.v1 v1.25.2
	gopkg.in/macaron.v1 v1.2.1
	gopkg.in/redis.v3 v3.6.4
	gopkg.in/yaml.v2 v2.0.0-20160301204022-a83829b6f129
)
